# Rhino
newmtl /New Volume TOON
Ka 0.0000 0.0000 0.0000
Kd 0.5020 0.5020 0.5020
Ks 1.0000 1.0000 1.0000
Tf 0.0000 0.0000 0.0000
d 1.0000
Ns 0

newmtl /slate
Ka 0.0000 0.0000 0.0000
Kd 0.0000 0.0000 0.0000
Ks 1.0000 1.0000 1.0000
Tf 0.0000 0.0000 0.0000
d 1.0000
Ns 0

newmtl Default
Ka 0.0000 0.0000 0.0000
Kd 1.0000 1.0000 1.0000
Ks 1.0000 1.0000 1.0000
Tf 0.0000 0.0000 0.0000
d 1.0000
Ns 0

newmtl /wood-texture
Ka 0.0000 0.0000 0.0000
Kd 0.7765 0.7333 0.6588
Ks 1.0000 1.0000 1.0000
Tf 0.0000 0.0000 0.0000
d 1.0000
Ns 0

newmtl /clear_glass
Ka 0.0000 0.0000 0.0000
Kd 0.0000 0.0000 0.0000
Ks 1.0000 1.0000 1.0000
Tf 0.0000 0.0000 0.0000
d 0.2000
Ns 255

newmtl lightgreybrick
Ka 0.4980 0.4980 0.4980
Kd 0.4980 0.4980 0.4980
Ks 1.0000 1.0000 1.0000
Tf 0.0000 0.0000 0.0000
d 1.0000
Ns 0

newmtl /lightgreybrick
Ka 0.0000 0.0000 0.0000
Kd 0.5020 0.5020 0.5020
Ks 1.0000 1.0000 1.0000
Tf 0.0000 0.0000 0.0000
d 1.0000
Ns 0

newmtl /midlegreybrick
Ka 0.0000 0.0000 0.0000
Kd 0.5020 0.5020 0.5020
Ks 1.0000 1.0000 1.0000
Tf 0.0000 0.0000 0.0000
d 1.0000
Ns 0

newmtl /toon
Ka 0.0000 0.0000 0.0000
Kd 0.5020 0.5020 0.5020
Ks 1.0000 1.0000 1.0000
Tf 0.0000 0.0000 0.0000
d 1.0000
Ns 0

newmtl /GRASS
Ka 0.0000 0.0000 0.0000
Kd 0.5725 0.6667 0.5725
Ks 1.0000 1.0000 1.0000
Tf 0.0000 0.0000 0.0000
d 1.0000
Ns 0

newmtl /WATER
Ka 0.0000 0.0000 0.0000
Kd 0.4510 0.6275 0.6275
Ks 1.0000 1.0000 1.0000
Tf 0.0000 0.0000 0.0000
d 1.0000
Ns 0

